{
    "name": "CoopNetworking",
    "rootNamespace": "",
    "references": [
        "GUID:3b8ed52f1b5c64994af4c4e0aa4b6c4b",
        "GUID:1491147abca9d7d4bb7105af628b223e",
        "GUID:894a6cc6ed5cd2645bb542978cbed6a9"
    ],
    "includePlatforms": [],
    "excludePlatforms": [],
    "allowUnsafeCode": false,
    "overrideReferences": false,
    "precompiledReferences": [],
    "autoReferenced": true,
    "defineConstraints": [],
    "versionDefines": [],
    "noEngineReferences": false
}